project_02
…
df_1 |>
  mutate(
  low = rowSums(across(c(`<$10k`, `$10-20k`, `$20-30k`, `$30-40k`, `$40-50k`))),
  mid = rowSums(across(c(, `$50-75k`, `$75-100k`))),
  high = rowSums(across(c(`$100-150k`, `>$150k`)))) |>
  select(Religion, low, mid, high) |>
  pivot_longer(cols = -Religion, names_to = "income_range", values_to = "n")

# A tibble: 42 × 3
   Religion income_range     n
   <chr>    <chr>        <dbl>
 1 Agnostic low            278
 2 Agnostic mid            239
 3 Agnostic high           193
 4 Atheist  low            167
 5 Atheist  mid            157
 6 Atheist  high           133
 7 Buddhist low            145
 8 Buddhist mid            120
 9 Buddhist high            92
10 Catholic low           3075
# ℹ 32 more rows

df_2 |>
  select(RecordID, AgeGroup, ScreeningScores, TherapyType, Jan, Feb, Mar, Apr, May) |>
  rename(id = RecordID, scores = ScreeningScores, age = AgeGroup) |>
  pivot_longer(cols = c(Jan, Feb, Mar, Apr, May), names_to = "month", values_to = "values") |>
  mutate(scores = str_replace(scores, ",\\s*", ";"),
         scores = str_replace_all(scores, "[:\\-=]", ""),
         scores = str_replace(scores, "GAD7", ""),
         scores = str_replace(scores, "PHQ9", ""))|> 
  separate(col = scores, into = c("PHQ", "GAD7"), sep = ";") |>
  mutate(values = replace(values, values %in% c("-", "missing", "", "n/a"), NA))

# A tibble: 900 × 7
      id age     PHQ   GAD7  TherapyType month values
   <dbl> <chr>   <chr> <chr> <chr>       <chr> <chr> 
 1     1 unknown 9     0     Group       Jan   <NA>  
 2     1 unknown 9     0     Group       Feb   <NA>  
 3     1 unknown 9     0     Group       Mar   <NA>  
 4     1 unknown 9     0     Group       Apr   <NA>  
 5     1 unknown 9     0     Group       May   <NA>  
 6     2 unknown 2     9     ACT         Jan   <NA>  
 7     2 unknown 2     9     ACT         Feb   <NA>  
 8     2 unknown 2     9     ACT         Mar   <NA>  
 9     2 unknown 2     9     ACT         Apr   <NA>  
10     2 unknown 2     9     ACT         May   <NA>  
# ℹ 890 more rows
…
