assignment_3a
…
dbGetQuery(con, "SELECT version();")

                                                                  version
1 PostgreSQL 17.6 on x86_64-windows, compiled by msvc-19.44.35213, 64-bit

Creating csv from df

query <- "SELECT * FROM popular_movies.v_ratings_raw"
df <- dbGetQuery(con, query) |>
  as_tibble()

df |> select(name, title, rating)

# A tibble: 30 × 3
   name  title                    rating
   <chr> <chr>                     <int>
 1 Alex  One Battle After Another      5
 2 Alex  Begonia                       4
 3 Alex  Wicked for Good               4
 4 Alex  The Materialist               3
 5 Alex  Sinners                      NA
 6 Bri   One Battle After Another      4
 7 Bri   Begonia                       3
 8 Bri   Wicked for Good               5
 9 Bri   The Materialist              NA
10 Bri   Sinners                       4
# ℹ 20 more rows
…
