project_04
…
email_words <- emails |>
  select(email_id, label, text) |>
  unnest_tokens(word, text) |>
  anti_join(stop_words, by = "word") |>
  filter(str_detect(word, "^[a-z]+$")) |>
  count(email_id, label, word, name = "count")

email_words

# A tibble: 92,038 × 4
   email_id label word          count
      <int> <dbl> <chr>         <int>
 1        2     1 access            1
 2        2     1 address           1
 3        2     1 administrator     1
 4        2     1 approved          1
 5        2     1 attractive        1
 6        2     1 benefit           1
 7        2     1 biggest           1
 8        2     1 bin               1
 9        2     1 biz               2
10        2     1 brand             1
# ℹ 92,028 more rows
…
