assignment_10B
…
lit <- get_api(
  paste0(url, "/nobelPrizes?nobelPrizeCategory=literature&awardYear=2010&yearTo=2020")
)

lit_winners <- lit$nobelPrizes|>
  select(awardYear, laureates)|>
  unnest(cols = laureates) |>
  transmute(
    year = awardYear,
    winner = coalesce(knownName.en, fullName.en)
  )

lit_winners

# A tibble: 31 × 2
   year  winner                
   <chr> <chr>                 
 1 1901  Jacobus H. van 't Hoff
 2 1901  Sully Prudhomme       
 3 1901  Henry Dunant          
 4 1901  Frédéric Passy        
 5 1901  Wilhelm Conrad Röntgen
 6 1901  Emil von Behring      
 7 1902  Emil Fischer          
 8 1902  Theodor Mommsen       
 9 1902  Élie Ducommun         
10 1902  Albert Gobat          
# ℹ 21 more rows
…
