Week2A SQL and R
…
Query

query <- "SELECT * FROM popular_movies.v_ratings_raw"
df_view_raw <- dbGetQuery(con, query) |>
  as_tibble()

query <- "SELECT * FROM popular_movies.v_ratings_clean"
df_view_clean <- dbGetQuery(con, query) |>
  as_tibble()

df_view_raw

# A tibble: 30 × 5
   name  title                    release_year rating rated_at           
   <chr> <chr>                           <int>  <int> <dttm>             
 1 Alex  One Battle After Another         2025      5 2026-02-04 13:57:13
 2 Alex  Begonia                          2025      4 2026-02-04 13:57:13
 3 Alex  Wicked for Good                  2025      4 2026-02-04 13:57:13
 4 Alex  The Materialist                  2025      3 2026-02-04 13:57:13
 5 Alex  Sinners                          2025     NA 2026-02-04 13:57:13
 6 Bri   One Battle After Another         2025      4 2026-02-04 13:57:13
 7 Bri   Begonia                          2025      3 2026-02-04 13:57:13
 8 Bri   Wicked for Good                  2025      5 2026-02-04 13:57:13
 9 Bri   The Materialist                  2025     NA 2026-02-04 13:57:13
10 Bri   Sinners                          2025      4 2026-02-04 13:57:13
# ℹ 20 more rows

df_view_clean

# A tibble: 24 × 5
   name  title                    release_year rating rated_at           
   <chr> <chr>                           <int>  <int> <dttm>             
 1 Alex  One Battle After Another         2025      5 2026-02-04 13:57:13
 2 Alex  Begonia                          2025      4 2026-02-04 13:57:13
 3 Alex  Wicked for Good                  2025      4 2026-02-04 13:57:13
 4 Alex  The Materialist                  2025      3 2026-02-04 13:57:13
 5 Bri   One Battle After Another         2025      4 2026-02-04 13:57:13
 6 Bri   Begonia                          2025      3 2026-02-04 13:57:13
 7 Bri   Wicked for Good                  2025      5 2026-02-04 13:57:13
 8 Bri   Sinners                          2025      4 2026-02-04 13:57:13
 9 Chen  Begonia                          2025      5 2026-02-04 13:57:13
10 Chen  Wicked for Good                  2025      4 2026-02-04 13:57:13
# ℹ 14 more rows
…
Practice, pretend v_ratings_clean doesn’t exist

df_view_clean <- df_view_raw |>
  filter(!is.na(rating))

df_view_clean

# A tibble: 24 × 5
   name  title                    release_year rating rated_at           
   <chr> <chr>                           <int>  <int> <dttm>             
 1 Alex  One Battle After Another         2025      5 2026-02-04 13:57:13
 2 Alex  Begonia                          2025      4 2026-02-04 13:57:13
 3 Alex  Wicked for Good                  2025      4 2026-02-04 13:57:13
 4 Alex  The Materialist                  2025      3 2026-02-04 13:57:13
 5 Bri   One Battle After Another         2025      4 2026-02-04 13:57:13
 6 Bri   Begonia                          2025      3 2026-02-04 13:57:13
 7 Bri   Wicked for Good                  2025      5 2026-02-04 13:57:13
 8 Bri   Sinners                          2025      4 2026-02-04 13:57:13
 9 Chen  Begonia                          2025      5 2026-02-04 13:57:13
10 Chen  Wicked for Good                  2025      4 2026-02-04 13:57:13
# ℹ 14 more rows

Analysis

df_view_clean |>
  arrange(desc(rating))

# A tibble: 24 × 5
   name  title                    release_year rating rated_at           
   <chr> <chr>                           <int>  <int> <dttm>             
 1 Alex  One Battle After Another         2025      5 2026-02-04 13:57:13
 2 Bri   Wicked for Good                  2025      5 2026-02-04 13:57:13
 3 Chen  Begonia                          2025      5 2026-02-04 13:57:13
 4 Devi  Sinners                          2025      5 2026-02-04 13:57:13
 5 Eli   The Materialist                  2025      5 2026-02-04 13:57:13
 6 Fran  One Battle After Another         2025      5 2026-02-04 13:57:13
 7 Alex  Begonia                          2025      4 2026-02-04 13:57:13
 8 Alex  Wicked for Good                  2025      4 2026-02-04 13:57:13
 9 Bri   One Battle After Another         2025      4 2026-02-04 13:57:13
10 Bri   Sinners                          2025      4 2026-02-04 13:57:13
# ℹ 14 more rows
…
