assignment_5b
…
url <- "https://raw.githubusercontent.com/Siganz/CUNY_Assignments/refs/heads/main/607/assignment_5/chess_player.csv"
df <- tibble(read_csv(url))

Rows: 64 Columns: 7
── Column specification ────────────────────────────────────────────────────────
Delimiter: ","
chr (2): name, state
dbl (5): pair, pre_rating, post_rating, total_pts, op_avg_rating

ℹ Use `spec()` to retrieve the full column specification for this data.
ℹ Specify the column types or set `show_col_types = FALSE` to quiet this message.

df

# A tibble: 64 × 7
    pair name               state pre_rating post_rating total_pts op_avg_rating
   <dbl> <chr>              <chr>      <dbl>       <dbl>     <dbl>         <dbl>
 1     1 GARY HUA           ON          1794        1817       6           1605.
 2     2 DAKSHESH DARURI    MI          1553        1663       6           1469.
 3     3 ADITYA BAJAJ       MI          1384        1640       6           1564.
 4     4 PATRICK H SCHILLI… MI          1716        1744       5.5         1574.
 5     5 HANSHI ZUO         MI          1655        1690       5.5         1501.
 6     6 HANSEN SONG        OH          1686        1687       5           1519.
 7     7 GARY DEE SWATHELL  MI          1649        1673       5           1372.
 8     8 EZEKIEL HOUGHTON   MI          1641        1657       5           1468.
 9     9 STEFANO LEE        ON          1411        1564       5           1523.
10    10 ANVIT RAO          MI          1365        1544       5           1554.
# ℹ 54 more rows
…
